[
null,
{"id":1,"expanded":true,"name":"Ethrea","order":1,"parentId":0,"scrollX":3204,"scrollY":2967},
{"id":2,"expanded":true,"name":"Erraverunt Wood","order":2,"parentId":1,"scrollX":1424,"scrollY":1106.6666666666667},
{"id":3,"expanded":false,"name":"Astral World","order":3,"parentId":2,"scrollX":2168,"scrollY":1222},
{"id":4,"expanded":true,"name":"Elm Forest 1","order":4,"parentId":1,"scrollX":1445.3333333333333,"scrollY":813.3333333333334},
{"id":5,"expanded":false,"name":"Elm Forest 2","order":5,"parentId":4,"scrollX":2168,"scrollY":1220},
{"id":6,"expanded":false,"name":"Elm Forest 3A","order":6,"parentId":4,"scrollX":1445.3333333333333,"scrollY":813.3333333333334},
{"id":7,"expanded":false,"name":"Elm Forest 3B","order":7,"parentId":4,"scrollX":1445.3333333333333,"scrollY":813.3333333333334},
{"id":8,"expanded":false,"name":"Elm Forest X","order":8,"parentId":4,"scrollX":1445.3333333333333,"scrollY":813.3333333333334},
{"id":9,"expanded":true,"name":"Xing Town","order":9,"parentId":1,"scrollX":1445.3333333333333,"scrollY":813.3333333333334},
{"id":10,"expanded":false,"name":"Xing Headquarter","order":10,"parentId":9,"scrollX":1445.3333333333333,"scrollY":813.3333333333334}
]